<?xml version="1.0" encoding="UTF-8" standalone="no"?>
<svg
   xmlns:dc="http://purl.org/dc/elements/1.1/"
   xmlns:cc="http://creativecommons.org/ns#"
   xmlns:rdf="http://www.w3.org/1999/02/22-rdf-syntax-ns#"
   xmlns:svg="http://www.w3.org/2000/svg"
   xmlns="http://www.w3.org/2000/svg"
   xmlns:sodipodi="http://sodipodi.sourceforge.net/DTD/sodipodi-0.dtd"
   xmlns:inkscape="http://www.inkscape.org/namespaces/inkscape"
   width="43.184486"
   height="45.173302"
   viewBox="0 0 43.184486 45.173304"
   class="feather feather-twitter"
   version="1.1"
   id="svg4"
   sodipodi:docname="twinthesizer.svg"
   style="fill:none;stroke:currentColor;stroke-width:2;stroke-linecap:round;stroke-linejoin:round"
   inkscape:version="0.92.2 2405546, 2018-03-11">
  <metadata
     id="metadata10">
    <rdf:RDF>
      <cc:Work
         rdf:about="">
        <dc:format>image/svg+xml</dc:format>
        <dc:type
           rdf:resource="http://purl.org/dc/dcmitype/StillImage" />
        <dc:title></dc:title>
      </cc:Work>
    </rdf:RDF>
  </metadata>
  <defs
     id="defs8" />
  <sodipodi:namedview
     pagecolor="#ffffff"
     bordercolor="#666666"
     borderopacity="1"
     objecttolerance="10"
     gridtolerance="10"
     guidetolerance="10"
     inkscape:pageopacity="0"
     inkscape:pageshadow="2"
     inkscape:window-width="1366"
     inkscape:window-height="694"
     id="namedview6"
     showgrid="false"
     inkscape:zoom="5.4679551"
     inkscape:cx="35.514508"
     inkscape:cy="30.276829"
     inkscape:window-x="0"
     inkscape:window-y="0"
     inkscape:window-maximized="1"
     inkscape:current-layer="svg4"
     units="px"
     inkscape:pagecheckerboard="true"
     inkscape:snap-grids="true"
     inkscape:object-paths="true"
     inkscape:snap-intersection-paths="true"
     inkscape:snap-smooth-nodes="true"
     inkscape:snap-midpoints="true"
     fit-margin-top="0"
     fit-margin-left="0"
     fit-margin-right="0"
     fit-margin-bottom="0" />
  <path
     d="m 24.218552,0.02150311 a 11.999192,11.999192 0 0 1 -3.456648,1.68429999 4.9317779,4.9317779 0 0 0 -8.652628,3.3025 v 1.1009 a 11.734989,11.734989 0 0 1 -9.9075888,-4.9868 c 0,0 -4.403374,9.9074999 5.504216,14.3108999 A 12.813816,12.813816 0 0 1 2.428209e-7,17.635003 C 9.9075903,23.139203 22.016866,17.635003 22.016866,4.9753031 a 4.9537948,4.9537948 0 0 0 -0.08807,-0.9137 8.4985101,8.4985101 0 0 0 2.289754,-4.04009999 z"
     id="path2"
     inkscape:connector-curvature="0"
     style="fill:#556fff;fill-opacity:1;stroke:#556fff;stroke-width:0;stroke-miterlimit:4;stroke-dasharray:none;stroke-opacity:1" />
  <path
     style="fill:none;fill-opacity:1;stroke:#000000;stroke-width:1.60000002;stroke-linecap:round;stroke-linejoin:bevel;stroke-miterlimit:4;stroke-dasharray:none;stroke-opacity:1;paint-order:fill markers stroke"
     d="M 24.494243,7.8703031 C 23.770192,12.702903 22.056547,19.300203 13.915465,21.546403"
     id="path3756"
     inkscape:connector-curvature="0"
     sodipodi:nodetypes="cc" />
  <path
     sodipodi:nodetypes="cc"
     inkscape:connector-curvature="0"
     id="path4529"
     d="M 28.563406,8.4647031 C 27.194297,15.818503 23.110422,22.637903 15.195651,24.838403"
     style="fill:none;fill-opacity:1;stroke:#000000;stroke-width:1.60000002;stroke-linecap:round;stroke-linejoin:bevel;stroke-miterlimit:4;stroke-dasharray:none;stroke-opacity:1;paint-order:fill markers stroke" />
  <path
     style="fill:none;fill-opacity:1;stroke:#000000;stroke-width:1.60000002;stroke-linecap:round;stroke-linejoin:bevel;stroke-miterlimit:4;stroke-dasharray:none;stroke-opacity:1;paint-order:fill markers stroke"
     d="M 32.129639,8.8305031 C 30.76053,16.184303 24.710655,25.609803 16.795884,27.810303"
     id="path4531"
     inkscape:connector-curvature="0"
     sodipodi:nodetypes="cc" />
  <path
     style="color:#000000;font-style:normal;font-variant:normal;font-weight:normal;font-stretch:normal;font-size:medium;line-height:normal;font-family:sans-serif;font-variant-ligatures:normal;font-variant-position:normal;font-variant-caps:normal;font-variant-numeric:normal;font-variant-alternates:normal;font-feature-settings:normal;text-indent:0;text-align:start;text-decoration:none;text-decoration-line:none;text-decoration-style:solid;text-decoration-color:#000000;letter-spacing:normal;word-spacing:normal;text-transform:none;writing-mode:lr-tb;direction:ltr;text-orientation:mixed;dominant-baseline:auto;baseline-shift:baseline;text-anchor:start;white-space:normal;shape-padding:0;clip-rule:nonzero;display:inline;overflow:visible;visibility:visible;opacity:1;isolation:auto;mix-blend-mode:normal;color-interpolation:sRGB;color-interpolation-filters:linearRGB;solid-color:#000000;solid-opacity:1;vector-effect:none;fill:#000000;fill-opacity:1;fill-rule:nonzero;stroke:none;stroke-width:1.69880974;stroke-linecap:round;stroke-linejoin:bevel;stroke-miterlimit:4;stroke-dasharray:none;stroke-dashoffset:0;stroke-opacity:1;paint-order:fill markers stroke;color-rendering:auto;image-rendering:auto;shape-rendering:auto;text-rendering:auto;enable-background:accumulate"
     d="m 35.996938,16.110503 c -2.751362,6e-4 -4.998741,2.2506 -4.998046,5.0019 l 0.849609,0.8477 h 8.300781 l 0.84961,-0.8477 c 6.94e-4,-2.7523 -2.249629,-5.0026 -5.001954,-5.0019 z m 0.002,1.6992 c 1.5324,-4e-4 2.75255,1.046 3.130859,2.4531 h -6.261719 c 0.378067,-1.4067 1.59901,-2.4527 3.13086,-2.4531 z m -4.21875,4.5683 a 0.8223,0.8223 0 0 0 0,1.6446 h 8.4375 a 0.8223,0.8223 0 0 0 0,-1.6446 z m 0,2.0625 a 0.82158215,0.82158215 0 1 0 0,1.6426 h 8.4375 a 0.82158215,0.82158215 0 1 0 0,-1.6426 z m 0,2.0606 a 0.82158215,0.82158215 0 1 0 0,1.6426 h 8.4375 a 0.82158215,0.82158215 0 1 0 0,-1.6426 z m 0.06836,2.0605 -0.849609,0.8496 c -6.95e-4,2.7516 2.246631,5.0013 4.998046,5.002 2.752376,7e-4 5.002648,-2.2496 5.001954,-5.002 l -0.84961,-0.8496 z m -2.199219,0.01 a 0.84958495,0.84958495 0 0 0 -0.835937,0.8613 c 0,2.3345 0.899372,4.1941 2.261719,5.4141 1.156893,1.036 2.620315,1.617 4.121093,1.7734 v 6.5528 h -1.046875 a 1.0001,1.0001 0 1 0 0,2 h 3.939453 a 1.0001,1.0001 0 1 0 0,-2 h -1.046875 v -6.5762 c 1.414306,-0.1818 2.78159,-0.7458 3.876954,-1.7168 1.363911,-1.2091 2.265624,-3.059 2.265624,-5.3828 a 0.849609,0.849609 0 1 0 -1.699218,0 c 0,1.8988 -0.681047,3.2139 -1.69336,4.1113 -1.012312,0.8974 -2.394139,1.3639 -3.789062,1.3594 -1.394924,0 -2.77909,-0.4788 -3.792969,-1.3867 -1.013879,-0.908 -1.697267,-2.2366 -1.697265,-4.1485 a 0.84958495,0.84958495 0 0 0 -0.863282,-0.8613 z m 3.21875,1.6895 h 6.261719 c -0.378509,1.4067 -1.59873,2.4535 -3.130859,2.4531 -1.531139,-4e-4 -2.752186,-1.0475 -3.13086,-2.4531 z"
     id="path4535"
     inkscape:connector-curvature="0" />
</svg>
